%YAML 1.1
%TAG !u! tag:unity3d.com,2011:
--- !u!1 &1831551693771866
GameObject:
  m_ObjectHideFlags: 0
  m_CorrespondingSourceObject: {fileID: 0}
  m_PrefabInstance: {fileID: 0}
  m_PrefabAsset: {fileID: 0}
  serializedVersion: 6
  m_Component:
  - component: {fileID: 4565189611861034}
  - component: {fileID: 114140059323251502}
  - component: {fileID: 114594623923584052}
  - component: {fileID: 114290391021249986}
  - component: {fileID: 114096976402940132}
  - component: {fileID: 114049947547974234}
  m_Layer: 10
  m_Name: KoalaSword
  m_TagString: Untagged
  m_Icon: {fileID: 0}
  m_NavMeshLayer: 0
  m_StaticEditorFlags: 0
  m_IsActive: 1
--- !u!4 &4565189611861034
Transform:
  m_ObjectHideFlags: 0
  m_CorrespondingSourceObject: {fileID: 0}
  m_PrefabInstance: {fileID: 0}
  m_PrefabAsset: {fileID: 0}
  m_GameObject: {fileID: 1831551693771866}
  m_LocalRotation: {x: 0, y: 0, z: 0, w: 1}
  m_LocalPosition: {x: 15.38, y: -1.41, z: -0.04543307}
  m_LocalScale: {x: 1, y: 1, z: 1}
  m_Children:
  - {fileID: 4359571763133392}
  - {fileID: 4933920765886181543}
  - {fileID: 6812653807802518676}
  - {fileID: 1882808507077358398}
  m_Father: {fileID: 0}
  m_RootOrder: 0
  m_LocalEulerAnglesHint: {x: 0, y: 0, z: 0}
--- !u!114 &114140059323251502
MonoBehaviour:
  m_ObjectHideFlags: 0
  m_CorrespondingSourceObject: {fileID: 0}
  m_PrefabInstance: {fileID: 0}
  m_PrefabAsset: {fileID: 0}
  m_GameObject: {fileID: 1831551693771866}
  m_Enabled: 1
  m_EditorHideFlags: 0
  m_Script: {fileID: 11500000, guid: ba85f5b87cb8cf84f9e09dcca90cd372, type: 3}
  m_Name: 
  m_EditorClassIdentifier: 
  AimControl: 1
  RotationMode: 1
  WeaponRotationSpeed: 0
  MinimumAngle: -180
  MaximumAngle: 180
  MinimumMagnitude: 0.2
  ReticleType: 1
  Reticle: {fileID: 1000010525066036, guid: f08bfeb16a6183b4386f121ccf51b56e, type: 3}
  ReticleDistance: 5
  ReticleHeight: 0
  ReticleAtMousePosition: 1
  RotateReticle: 0
  ReplaceMousePointer: 1
  MouseDeadZoneRadius: 0.5
  DisplayReticle: 1
  MoveCameraTargetTowardsReticle: 1
  CameraTargetOffset: 0.3
  CameraTargetMaxDistance: 2
  CameraTargetSpeed: 5
--- !u!114 &114594623923584052
MonoBehaviour:
  m_ObjectHideFlags: 0
  m_CorrespondingSourceObject: {fileID: 0}
  m_PrefabInstance: {fileID: 0}
  m_PrefabAsset: {fileID: 0}
  m_GameObject: {fileID: 1831551693771866}
  m_Enabled: 1
  m_EditorHideFlags: 0
  m_Script: {fileID: 11500000, guid: a557e2b93323f4831a62221b200348c4, type: 3}
  m_Name: 
  m_EditorClassIdentifier: 
  WeaponName: 
  WeaponCurrentlyActive: 1
  TriggerMode: 0
  DelayBeforeUse: 0.1
  DelayBeforeUseReleaseInterruption: 0
  TimeBetweenUses: 0.3
  TimeBetweenUsesReleaseInterruption: 0
  MagazineBased: 0
  MagazineSize: 30
  AutoReload: 0
  ReloadTime: 2
  AmmoConsumedPerShot: 1
  AutoDestroyWhenEmpty: 0
  AutoDestroyWhenEmptyDelay: 1
  CurrentAmmoLoaded: 30
  WeaponAttachmentOffset: {x: 0.185, y: 0.31, z: 0}
  FlipWeaponOnCharacterFlip: 1
  RightFacingFlipValue: {x: 1, y: 1, z: 1}
  LeftFacingFlipValue: {x: -1, y: 1, z: 1}
  WeaponUseTransform: {fileID: 0}
  LeftHandHandle: {fileID: 0}
  RightHandHandle: {fileID: 0}
  ModifyMovementWhileAttacking: 0
  MovementMultiplier: 0
  PreventAllMovementWhileInUse: 1
  RecoilForce: 0
  Animators:
  - {fileID: 95971963482004484}
  WeaponAnimationID: 0
  IdleAnimationParameter: 
  StartAnimationParameter: Slash1
  DelayBeforeUseAnimationParameter: 
  SingleUseAnimationParameter: 
  UseAnimationParameter: 
  DelayBetweenUsesAnimationParameter: 
  StopAnimationParameter: 
  ReloadStartAnimationParameter: 
  ReloadAnimationParameter: 
  ReloadStopAnimationParameter: 
  WeaponAngleAnimationParameter: 
  WeaponAngleRelativeAnimationParameter: 
  WeaponStartMMFeedback: {fileID: 0}
  WeaponUsedMMFeedback: {fileID: 7309485491381257583}
  WeaponStopMMFeedback: {fileID: 0}
  WeaponReloadMMFeedback: {fileID: 0}
  WeaponReloadNeededMMFeedback: {fileID: 0}
  InitializeOnStart: 0
  Interruptable: 0
  Flipped: 0
  DamageAreaShape: 0
  AreaSize: {x: 4, y: 2, z: 0}
  AreaOffset: {x: 0.64, y: 0, z: 0}
  HitDamageableFeedback: {fileID: 0}
  HitNonDamageableFeedback: {fileID: 0}
  InitialDelay: 0
  ActiveDuration: 0.2
  TargetLayerMask:
    serializedVersion: 2
    m_Bits: 8448
  DamageCaused: 10
  Knockback: 1
  KnockbackForce: {x: 500, y: 0}
  InvincibilityDuration: 0.5
  CanDamageOwner: 0
--- !u!114 &114290391021249986
MonoBehaviour:
  m_ObjectHideFlags: 0
  m_CorrespondingSourceObject: {fileID: 0}
  m_PrefabInstance: {fileID: 0}
  m_PrefabAsset: {fileID: 0}
  m_GameObject: {fileID: 1831551693771866}
  m_Enabled: 1
  m_EditorHideFlags: 0
  m_Script: {fileID: 11500000, guid: a557e2b93323f4831a62221b200348c4, type: 3}
  m_Name: 
  m_EditorClassIdentifier: 
  WeaponName: 
  WeaponCurrentlyActive: 1
  TriggerMode: 0
  DelayBeforeUse: 0.1
  DelayBeforeUseReleaseInterruption: 0
  TimeBetweenUses: 0.1
  TimeBetweenUsesReleaseInterruption: 0
  MagazineBased: 0
  MagazineSize: 30
  AutoReload: 0
  ReloadTime: 2
  AmmoConsumedPerShot: 1
  AutoDestroyWhenEmpty: 0
  AutoDestroyWhenEmptyDelay: 1
  CurrentAmmoLoaded: 30
  WeaponAttachmentOffset: {x: 0.185, y: 0.31, z: 0}
  FlipWeaponOnCharacterFlip: 1
  RightFacingFlipValue: {x: 1, y: 1, z: 1}
  LeftFacingFlipValue: {x: -1, y: 1, z: 1}
  WeaponUseTransform: {fileID: 0}
  LeftHandHandle: {fileID: 0}
  RightHandHandle: {fileID: 0}
  ModifyMovementWhileAttacking: 0
  MovementMultiplier: 0
  PreventAllMovementWhileInUse: 1
  RecoilForce: 0
  Animators:
  - {fileID: 95971963482004484}
  WeaponAnimationID: 0
  IdleAnimationParameter: 
  StartAnimationParameter: Slash2
  DelayBeforeUseAnimationParameter: 
  SingleUseAnimationParameter: 
  UseAnimationParameter: 
  DelayBetweenUsesAnimationParameter: 
  StopAnimationParameter: 
  ReloadStartAnimationParameter: 
  ReloadAnimationParameter: 
  ReloadStopAnimationParameter: 
  WeaponAngleAnimationParameter: 
  WeaponAngleRelativeAnimationParameter: 
  WeaponStartMMFeedback: {fileID: 0}
  WeaponUsedMMFeedback: {fileID: 5792086717607066305}
  WeaponStopMMFeedback: {fileID: 0}
  WeaponReloadMMFeedback: {fileID: 0}
  WeaponReloadNeededMMFeedback: {fileID: 0}
  InitializeOnStart: 0
  Interruptable: 0
  Flipped: 0
  DamageAreaShape: 0
  AreaSize: {x: 3, y: 3, z: 0}
  AreaOffset: {x: 0.57, y: 0.2, z: 0}
  HitDamageableFeedback: {fileID: 0}
  HitNonDamageableFeedback: {fileID: 0}
  InitialDelay: 0
  ActiveDuration: 0.2
  TargetLayerMask:
    serializedVersion: 2
    m_Bits: 8448
  DamageCaused: 10
  Knockback: 1
  KnockbackForce: {x: 500, y: 0}
  InvincibilityDuration: 0.5
  CanDamageOwner: 0
--- !u!114 &114096976402940132
MonoBehaviour:
  m_ObjectHideFlags: 0
  m_CorrespondingSourceObject: {fileID: 0}
  m_PrefabInstance: {fileID: 0}
  m_PrefabAsset: {fileID: 0}
  m_GameObject: {fileID: 1831551693771866}
  m_Enabled: 1
  m_EditorHideFlags: 0
  m_Script: {fileID: 11500000, guid: a557e2b93323f4831a62221b200348c4, type: 3}
  m_Name: 
  m_EditorClassIdentifier: 
  WeaponName: 
  WeaponCurrentlyActive: 1
  TriggerMode: 0
  DelayBeforeUse: 0.4
  DelayBeforeUseReleaseInterruption: 0
  TimeBetweenUses: 0.1
  TimeBetweenUsesReleaseInterruption: 0
  MagazineBased: 0
  MagazineSize: 30
  AutoReload: 0
  ReloadTime: 2
  AmmoConsumedPerShot: 1
  AutoDestroyWhenEmpty: 0
  AutoDestroyWhenEmptyDelay: 1
  CurrentAmmoLoaded: 30
  WeaponAttachmentOffset: {x: 0.185, y: 0.31, z: 0}
  FlipWeaponOnCharacterFlip: 1
  RightFacingFlipValue: {x: 1, y: 1, z: 1}
  LeftFacingFlipValue: {x: -1, y: 1, z: 1}
  WeaponUseTransform: {fileID: 0}
  LeftHandHandle: {fileID: 0}
  RightHandHandle: {fileID: 0}
  ModifyMovementWhileAttacking: 0
  MovementMultiplier: 0
  PreventAllMovementWhileInUse: 1
  RecoilForce: 0
  Animators:
  - {fileID: 95971963482004484}
  WeaponAnimationID: 0
  IdleAnimationParameter: 
  StartAnimationParameter: Slash3
  DelayBeforeUseAnimationParameter: 
  SingleUseAnimationParameter: 
  UseAnimationParameter: 
  DelayBetweenUsesAnimationParameter: 
  StopAnimationParameter: 
  ReloadStartAnimationParameter: 
  ReloadAnimationParameter: 
  ReloadStopAnimationParameter: 
  WeaponAngleAnimationParameter: 
  WeaponAngleRelativeAnimationParameter: 
  WeaponStartMMFeedback: {fileID: 0}
  WeaponUsedMMFeedback: {fileID: 9077831138300214378}
  WeaponStopMMFeedback: {fileID: 0}
  WeaponReloadMMFeedback: {fileID: 0}
  WeaponReloadNeededMMFeedback: {fileID: 0}
  InitializeOnStart: 0
  Interruptable: 0
  Flipped: 0
  DamageAreaShape: 0
  AreaSize: {x: 4, y: 3, z: 0}
  AreaOffset: {x: 1.5, y: 0.5, z: 0}
  HitDamageableFeedback: {fileID: 0}
  HitNonDamageableFeedback: {fileID: 0}
  InitialDelay: 0
  ActiveDuration: 0.2
  TargetLayerMask:
    serializedVersion: 2
    m_Bits: 8448
  DamageCaused: 10
  Knockback: 1
  KnockbackForce: {x: 500, y: 0}
  InvincibilityDuration: 0.5
  CanDamageOwner: 0
--- !u!114 &114049947547974234
MonoBehaviour:
  m_ObjectHideFlags: 0
  m_CorrespondingSourceObject: {fileID: 0}
  m_PrefabInstance: {fileID: 0}
  m_PrefabAsset: {fileID: 0}
  m_GameObject: {fileID: 1831551693771866}
  m_Enabled: 1
  m_EditorHideFlags: 0
  m_Script: {fileID: 11500000, guid: 72343fc0e13ec114196ab09ea808900e, type: 3}
  m_Name: 
  m_EditorClassIdentifier: 
  DroppableCombo: 1
  DropComboDelay: 0.5
  ComboInProgressAnimationParameter: ComboInProgress
  Weapons: []
  OwnerCharacterHandleWeapon: {fileID: 0}
  TimeSinceLastWeaponStopped: 0
--- !u!1 &1881930734851166
GameObject:
  m_ObjectHideFlags: 0
  m_CorrespondingSourceObject: {fileID: 0}
  m_PrefabInstance: {fileID: 0}
  m_PrefabAsset: {fileID: 0}
  serializedVersion: 6
  m_Component:
  - component: {fileID: 4359571763133392}
  - component: {fileID: 212683281439507044}
  - component: {fileID: 95971963482004484}
  m_Layer: 10
  m_Name: Koala_Sword
  m_TagString: Untagged
  m_Icon: {fileID: 0}
  m_NavMeshLayer: 0
  m_StaticEditorFlags: 0
  m_IsActive: 1
--- !u!4 &4359571763133392
Transform:
  m_ObjectHideFlags: 0
  m_CorrespondingSourceObject: {fileID: 0}
  m_PrefabInstance: {fileID: 0}
  m_PrefabAsset: {fileID: 0}
  m_GameObject: {fileID: 1881930734851166}
  m_LocalRotation: {x: -0, y: -0, z: -0, w: 1}
  m_LocalPosition: {x: 0, y: 0, z: 0}
  m_LocalScale: {x: 1, y: 1, z: 1}
  m_Children: []
  m_Father: {fileID: 4565189611861034}
  m_RootOrder: 0
  m_LocalEulerAnglesHint: {x: 0, y: 0, z: 0}
--- !u!212 &212683281439507044
SpriteRenderer:
  m_ObjectHideFlags: 0
  m_CorrespondingSourceObject: {fileID: 0}
  m_PrefabInstance: {fileID: 0}
  m_PrefabAsset: {fileID: 0}
  m_GameObject: {fileID: 1881930734851166}
  m_Enabled: 1
  m_CastShadows: 0
  m_ReceiveShadows: 0
  m_DynamicOccludee: 1
  m_MotionVectors: 1
  m_LightProbeUsage: 1
  m_ReflectionProbeUsage: 1
  m_RayTracingMode: 0
  m_RenderingLayerMask: 4294967295
  m_RendererPriority: 0
  m_Materials:
  - {fileID: 10754, guid: 0000000000000000f000000000000000, type: 0}
  m_StaticBatchInfo:
    firstSubMesh: 0
    subMeshCount: 0
  m_StaticBatchRoot: {fileID: 0}
  m_ProbeAnchor: {fileID: 0}
  m_LightProbeVolumeOverride: {fileID: 0}
  m_ScaleInLightmap: 1
  m_ReceiveGI: 1
  m_PreserveUVs: 0
  m_IgnoreNormalsForChartDetection: 0
  m_ImportantGI: 0
  m_StitchLightmapSeams: 0
  m_SelectedEditorRenderState: 0
  m_MinimumChartSize: 4
  m_AutoUVMaxDistance: 0.5
  m_AutoUVMaxAngle: 89
  m_LightmapParameters: {fileID: 0}
  m_SortingLayerID: 47421343
  m_SortingLayer: 4
  m_SortingOrder: 0
  m_Sprite: {fileID: -6612202234409367580, guid: c4ca31824272da94e84570f21640cb93,
    type: 3}
  m_Color: {r: 1, g: 1, b: 1, a: 1}
  m_FlipX: 0
  m_FlipY: 0
  m_DrawMode: 0
  m_Size: {x: 6.4, y: 6.4}
  m_AdaptiveModeThreshold: 0.5
  m_SpriteTileMode: 0
  m_WasSpriteAssigned: 1
  m_MaskInteraction: 0
  m_SpriteSortPoint: 0
--- !u!95 &95971963482004484
Animator:
  serializedVersion: 3
  m_ObjectHideFlags: 0
  m_CorrespondingSourceObject: {fileID: 0}
  m_PrefabInstance: {fileID: 0}
  m_PrefabAsset: {fileID: 0}
  m_GameObject: {fileID: 1881930734851166}
  m_Enabled: 1
  m_Avatar: {fileID: 0}
  m_Controller: {fileID: 9100000, guid: e64b57d28c476b444b17eecf070bb298, type: 2}
  m_CullingMode: 0
  m_UpdateMode: 0
  m_ApplyRootMotion: 0
  m_LinearVelocityBlending: 0
  m_WarningMessage: 
  m_HasTransformHierarchy: 1
  m_AllowConstantClipSamplingOptimization: 1
  m_KeepAnimatorControllerStateOnDisable: 0
--- !u!1 &1128744997918063719
GameObject:
  m_ObjectHideFlags: 0
  m_CorrespondingSourceObject: {fileID: 0}
  m_PrefabInstance: {fileID: 0}
  m_PrefabAsset: {fileID: 0}
  serializedVersion: 6
  m_Component:
  - component: {fileID: 6812653807802518676}
  - component: {fileID: 5792086717607066305}
  - component: {fileID: 752334909713143275}
  - component: {fileID: 1742450673198080081}
  - component: {fileID: 5387519167931082781}
  - component: {fileID: 8830411852509238755}
  m_Layer: 10
  m_Name: WeaponUsedMMFeedback2
  m_TagString: Untagged
  m_Icon: {fileID: 0}
  m_NavMeshLayer: 0
  m_StaticEditorFlags: 0
  m_IsActive: 1
--- !u!4 &6812653807802518676
Transform:
  m_ObjectHideFlags: 0
  m_CorrespondingSourceObject: {fileID: 0}
  m_PrefabInstance: {fileID: 0}
  m_PrefabAsset: {fileID: 0}
  m_GameObject: {fileID: 1128744997918063719}
  m_LocalRotation: {x: -0, y: -0, z: -0, w: 1}
  m_LocalPosition: {x: 0, y: 0, z: 0}
  m_LocalScale: {x: 1, y: 1, z: 1}
  m_Children: []
  m_Father: {fileID: 4565189611861034}
  m_RootOrder: 2
  m_LocalEulerAnglesHint: {x: 0, y: 0, z: 0}
--- !u!114 &5792086717607066305
MonoBehaviour:
  m_ObjectHideFlags: 0
  m_CorrespondingSourceObject: {fileID: 0}
  m_PrefabInstance: {fileID: 0}
  m_PrefabAsset: {fileID: 0}
  m_GameObject: {fileID: 1128744997918063719}
  m_Enabled: 1
  m_EditorHideFlags: 0
  m_Script: {fileID: 11500000, guid: 841b72de2996c5c40bfb394f3d0e0a98, type: 3}
  m_Name: 
  m_EditorClassIdentifier: 
  Feedbacks:
  - {fileID: 752334909713143275}
  - {fileID: 1742450673198080081}
  - {fileID: 5387519167931082781}
  - {fileID: 8830411852509238755}
  InitializationMode: 2
  SafeMode: 3
  AutoPlayOnStart: 0
  DebugActive: 0
--- !u!114 &752334909713143275
MonoBehaviour:
  m_ObjectHideFlags: 0
  m_CorrespondingSourceObject: {fileID: 0}
  m_PrefabInstance: {fileID: 0}
  m_PrefabAsset: {fileID: 0}
  m_GameObject: {fileID: 1128744997918063719}
  m_Enabled: 1
  m_EditorHideFlags: 0
  m_Script: {fileID: 11500000, guid: 6b50cd65cc53b9e46bdaae0a40ba6704, type: 3}
  m_Name: 
  m_EditorClassIdentifier: 
  Active: 1
  Label: Bloom
  Chance: 100
  Timing:
    TimescaleMode: 0
    InitialDelay: 0
    CooldownDuration: 0
    NumberOfRepeats: 0
    RepeatForever: 0
    DelayBetweenRepeats: 1
    Sequence: {fileID: 0}
    TrackID: 0
    Quantized: 0
    TargetBPM: 120
  DebugActive: 0
  Channel: 0
  ShakeDuration: 0.2
  ResetShakerValuesAfterShake: 1
  ResetTargetValuesAfterShake: 1
  RelativeValues: 1
  ShakeIntensity:
    serializedVersion: 2
    m_Curve:
    - serializedVersion: 3
      time: 0
      value: 0
      inSlope: 0
      outSlope: 0
      tangentMode: 0
      weightedMode: 0
      inWeight: 0
      outWeight: 0
    - serializedVersion: 3
      time: 0.5
      value: 1
      inSlope: 0
      outSlope: 0
      tangentMode: 0
      weightedMode: 0
      inWeight: 0
      outWeight: 0
    - serializedVersion: 3
      time: 1
      value: 0
      inSlope: 0
      outSlope: 0
      tangentMode: 0
      weightedMode: 0
      inWeight: 0
      outWeight: 0
    m_PreInfinity: 2
    m_PostInfinity: 2
    m_RotationOrder: 4
  RemapIntensityZero: 0
  RemapIntensityOne: 1
  ShakeThreshold:
    serializedVersion: 2
    m_Curve:
    - serializedVersion: 3
      time: 0
      value: 0
      inSlope: 0
      outSlope: 0
      tangentMode: 0
      weightedMode: 0
      inWeight: 0
      outWeight: 0
    - serializedVersion: 3
      time: 0.5
      value: 1
      inSlope: 0
      outSlope: 0
      tangentMode: 0
      weightedMode: 0
      inWeight: 0
      outWeight: 0
    - serializedVersion: 3
      time: 1
      value: 0
      inSlope: 0
      outSlope: 0
      tangentMode: 0
      weightedMode: 0
      inWeight: 0
      outWeight: 0
    m_PreInfinity: 2
    m_PostInfinity: 2
    m_RotationOrder: 4
  RemapThresholdZero: 0
  RemapThresholdOne: 0
--- !u!114 &1742450673198080081
MonoBehaviour:
  m_ObjectHideFlags: 0
  m_CorrespondingSourceObject: {fileID: 0}
  m_PrefabInstance: {fileID: 0}
  m_PrefabAsset: {fileID: 0}
  m_GameObject: {fileID: 1128744997918063719}
  m_Enabled: 1
  m_EditorHideFlags: 0
  m_Script: {fileID: 11500000, guid: 75a83e73a8ad76c4a9a82695f98ff05e, type: 3}
  m_Name: 
  m_EditorClassIdentifier: 
  Active: 1
  Label: Chromatic Aberration
  Chance: 100
  Timing:
    TimescaleMode: 0
    InitialDelay: 0
    CooldownDuration: 0
    NumberOfRepeats: 0
    RepeatForever: 0
    DelayBetweenRepeats: 1
    Sequence: {fileID: 0}
    TrackID: 0
    Quantized: 0
    TargetBPM: 120
  DebugActive: 0
  Channel: 0
  Duration: 0.2
  ResetShakerValuesAfterShake: 1
  ResetTargetValuesAfterShake: 1
  RemapIntensityZero: 0
  RemapIntensityOne: 1
  Intensity:
    serializedVersion: 2
    m_Curve:
    - serializedVersion: 3
      time: 0
      value: 0
      inSlope: 0
      outSlope: 0
      tangentMode: 0
      weightedMode: 0
      inWeight: 0
      outWeight: 0
    - serializedVersion: 3
      time: 0.5
      value: 1
      inSlope: 0
      outSlope: 0
      tangentMode: 0
      weightedMode: 0
      inWeight: 0
      outWeight: 0
    - serializedVersion: 3
      time: 1
      value: 0
      inSlope: 0
      outSlope: 0
      tangentMode: 0
      weightedMode: 0
      inWeight: 0
      outWeight: 0
    m_PreInfinity: 2
    m_PostInfinity: 2
    m_RotationOrder: 4
  Amplitude: 2
  RelativeIntensity: 0
--- !u!114 &5387519167931082781
MonoBehaviour:
  m_ObjectHideFlags: 0
  m_CorrespondingSourceObject: {fileID: 0}
  m_PrefabInstance: {fileID: 0}
  m_PrefabAsset: {fileID: 0}
  m_GameObject: {fileID: 1128744997918063719}
  m_Enabled: 1
  m_EditorHideFlags: 0
  m_Script: {fileID: 11500000, guid: 4cf8e1825623fb34b9fc92dbef54ec56, type: 3}
  m_Name: 
  m_EditorClassIdentifier: 
  Active: 1
  Label: Flash
  Chance: 100
  Timing:
    TimescaleMode: 0
    InitialDelay: 0
    CooldownDuration: 0
    NumberOfRepeats: 0
    RepeatForever: 0
    DelayBetweenRepeats: 1
    Sequence: {fileID: 0}
    TrackID: 0
    Quantized: 0
    TargetBPM: 120
  DebugActive: 0
  Channel: 0
  FlashColor: {r: 0.8431373, g: 0.7254902, b: 0.9568628, a: 1}
  FlashDuration: 0.2
  FlashAlpha: 0.3
  FlashID: 0
--- !u!114 &8830411852509238755
MonoBehaviour:
  m_ObjectHideFlags: 0
  m_CorrespondingSourceObject: {fileID: 0}
  m_PrefabInstance: {fileID: 0}
  m_PrefabAsset: {fileID: 0}
  m_GameObject: {fileID: 1128744997918063719}
  m_Enabled: 1
  m_EditorHideFlags: 0
  m_Script: {fileID: 11500000, guid: 0c2ce51367856bd49b72678cc4263225, type: 3}
  m_Name: 
  m_EditorClassIdentifier: 
  Active: 1
  Label: Sound
  Chance: 100
  Timing:
    TimescaleMode: 0
    InitialDelay: 0
    CooldownDuration: 0
    NumberOfRepeats: 0
    RepeatForever: 0
    DelayBetweenRepeats: 1
    Sequence: {fileID: 0}
    TrackID: 0
    Quantized: 0
    TargetBPM: 120
  DebugActive: 0
  Sfx: {fileID: 8300000, guid: 73b62a73edfa18342812e7c891904e97, type: 3}
  RandomSfx: []
  TestButton: 0
  TestStopButton: 0
  PlayMethod: 0
  PoolSize: 10
  MinVolume: 1
  MaxVolume: 1
  MinPitch: 1
  MaxPitch: 1
  SfxAudioMixerGroup: {fileID: 0}
--- !u!1 &1891080909852819448
GameObject:
  m_ObjectHideFlags: 0
  m_CorrespondingSourceObject: {fileID: 0}
  m_PrefabInstance: {fileID: 0}
  m_PrefabAsset: {fileID: 0}
  serializedVersion: 6
  m_Component:
  - component: {fileID: 1882808507077358398}
  - component: {fileID: 9077831138300214378}
  - component: {fileID: 8884571725774433981}
  - component: {fileID: 3092074743115253443}
  - component: {fileID: 3726014551030632691}
  - component: {fileID: 5628216583868159927}
  - component: {fileID: 4643787643886568759}
  - component: {fileID: 5115422185614218882}
  m_Layer: 10
  m_Name: WeaponUsedMMFeedback3
  m_TagString: Untagged
  m_Icon: {fileID: 0}
  m_NavMeshLayer: 0
  m_StaticEditorFlags: 0
  m_IsActive: 1
--- !u!4 &1882808507077358398
Transform:
  m_ObjectHideFlags: 0
  m_CorrespondingSourceObject: {fileID: 0}
  m_PrefabInstance: {fileID: 0}
  m_PrefabAsset: {fileID: 0}
  m_GameObject: {fileID: 1891080909852819448}
  m_LocalRotation: {x: -0, y: -0, z: -0, w: 1}
  m_LocalPosition: {x: 0, y: 0, z: 0}
  m_LocalScale: {x: 1, y: 1, z: 1}
  m_Children: []
  m_Father: {fileID: 4565189611861034}
  m_RootOrder: 3
  m_LocalEulerAnglesHint: {x: 0, y: 0, z: 0}
--- !u!114 &9077831138300214378
MonoBehaviour:
  m_ObjectHideFlags: 0
  m_CorrespondingSourceObject: {fileID: 0}
  m_PrefabInstance: {fileID: 0}
  m_PrefabAsset: {fileID: 0}
  m_GameObject: {fileID: 1891080909852819448}
  m_Enabled: 1
  m_EditorHideFlags: 0
  m_Script: {fileID: 11500000, guid: 841b72de2996c5c40bfb394f3d0e0a98, type: 3}
  m_Name: 
  m_EditorClassIdentifier: 
  Feedbacks:
  - {fileID: 8884571725774433981}
  - {fileID: 3092074743115253443}
  - {fileID: 3726014551030632691}
  - {fileID: 5628216583868159927}
  - {fileID: 4643787643886568759}
  - {fileID: 5115422185614218882}
  InitializationMode: 2
  SafeMode: 3
  AutoPlayOnStart: 0
  DebugActive: 0
--- !u!114 &8884571725774433981
MonoBehaviour:
  m_ObjectHideFlags: 0
  m_CorrespondingSourceObject: {fileID: 0}
  m_PrefabInstance: {fileID: 0}
  m_PrefabAsset: {fileID: 0}
  m_GameObject: {fileID: 1891080909852819448}
  m_Enabled: 1
  m_EditorHideFlags: 0
  m_Script: {fileID: 11500000, guid: 6b50cd65cc53b9e46bdaae0a40ba6704, type: 3}
  m_Name: 
  m_EditorClassIdentifier: 
  Active: 1
  Label: Bloom
  Chance: 100
  Timing:
    TimescaleMode: 0
    InitialDelay: 0
    CooldownDuration: 0
    NumberOfRepeats: 0
    RepeatForever: 0
    DelayBetweenRepeats: 1
    Sequence: {fileID: 0}
    TrackID: 0
    Quantized: 0
    TargetBPM: 120
  DebugActive: 0
  Channel: 0
  ShakeDuration: 0.2
  ResetShakerValuesAfterShake: 1
  ResetTargetValuesAfterShake: 1
  RelativeValues: 1
  ShakeIntensity:
    serializedVersion: 2
    m_Curve:
    - serializedVersion: 3
      time: 0
      value: 0
      inSlope: 0
      outSlope: 0
      tangentMode: 0
      weightedMode: 0
      inWeight: 0
      outWeight: 0
    - serializedVersion: 3
      time: 0.5
      value: 1
      inSlope: 0
      outSlope: 0
      tangentMode: 0
      weightedMode: 0
      inWeight: 0
      outWeight: 0
    - serializedVersion: 3
      time: 1
      value: 0
      inSlope: 0
      outSlope: 0
      tangentMode: 0
      weightedMode: 0
      inWeight: 0
      outWeight: 0
    m_PreInfinity: 2
    m_PostInfinity: 2
    m_RotationOrder: 4
  RemapIntensityZero: 0
  RemapIntensityOne: 1
  ShakeThreshold:
    serializedVersion: 2
    m_Curve:
    - serializedVersion: 3
      time: 0
      value: 0
      inSlope: 0
      outSlope: 0
      tangentMode: 0
      weightedMode: 0
      inWeight: 0
      outWeight: 0
    - serializedVersion: 3
      time: 0.5
      value: 1
      inSlope: 0
      outSlope: 0
      tangentMode: 0
      weightedMode: 0
      inWeight: 0
      outWeight: 0
    - serializedVersion: 3
      time: 1
      value: 0
      inSlope: 0
      outSlope: 0
      tangentMode: 0
      weightedMode: 0
      inWeight: 0
      outWeight: 0
    m_PreInfinity: 2
    m_PostInfinity: 2
    m_RotationOrder: 4
  RemapThresholdZero: 0
  RemapThresholdOne: 0
--- !u!114 &3092074743115253443
MonoBehaviour:
  m_ObjectHideFlags: 0
  m_CorrespondingSourceObject: {fileID: 0}
  m_PrefabInstance: {fileID: 0}
  m_PrefabAsset: {fileID: 0}
  m_GameObject: {fileID: 1891080909852819448}
  m_Enabled: 1
  m_EditorHideFlags: 0
  m_Script: {fileID: 11500000, guid: 75a83e73a8ad76c4a9a82695f98ff05e, type: 3}
  m_Name: 
  m_EditorClassIdentifier: 
  Active: 1
  Label: Chromatic Aberration
  Chance: 100
  Timing:
    TimescaleMode: 0
    InitialDelay: 0
    CooldownDuration: 0
    NumberOfRepeats: 0
    RepeatForever: 0
    DelayBetweenRepeats: 1
    Sequence: {fileID: 0}
    TrackID: 0
    Quantized: 0
    TargetBPM: 120
  DebugActive: 0
  Channel: 0
  Duration: 0.2
  ResetShakerValuesAfterShake: 1
  ResetTargetValuesAfterShake: 1
  RemapIntensityZero: 0
  RemapIntensityOne: 1
  Intensity:
    serializedVersion: 2
    m_Curve:
    - serializedVersion: 3
      time: 0
      value: 0
      inSlope: 0
      outSlope: 0
      tangentMode: 0
      weightedMode: 0
      inWeight: 0
      outWeight: 0
    - serializedVersion: 3
      time: 0.5
      value: 1
      inSlope: 0
      outSlope: 0
      tangentMode: 0
      weightedMode: 0
      inWeight: 0
      outWeight: 0
    - serializedVersion: 3
      time: 1
      value: 0
      inSlope: 0
      outSlope: 0
      tangentMode: 0
      weightedMode: 0
      inWeight: 0
      outWeight: 0
    m_PreInfinity: 2
    m_PostInfinity: 2
    m_RotationOrder: 4
  Amplitude: 2
  RelativeIntensity: 0
--- !u!114 &3726014551030632691
MonoBehaviour:
  m_ObjectHideFlags: 0
  m_CorrespondingSourceObject: {fileID: 0}
  m_PrefabInstance: {fileID: 0}
  m_PrefabAsset: {fileID: 0}
  m_GameObject: {fileID: 1891080909852819448}
  m_Enabled: 1
  m_EditorHideFlags: 0
  m_Script: {fileID: 11500000, guid: 4cf8e1825623fb34b9fc92dbef54ec56, type: 3}
  m_Name: 
  m_EditorClassIdentifier: 
  Active: 1
  Label: Flash
  Chance: 100
  Timing:
    TimescaleMode: 0
    InitialDelay: 0
    CooldownDuration: 0
    NumberOfRepeats: 0
    RepeatForever: 0
    DelayBetweenRepeats: 1
    Sequence: {fileID: 0}
    TrackID: 0
    Quantized: 0
    TargetBPM: 120
  DebugActive: 0
  Channel: 0
  FlashColor: {r: 0.8431373, g: 0.7254902, b: 0.9568628, a: 1}
  FlashDuration: 0.2
  FlashAlpha: 0.3
  FlashID: 0
--- !u!114 &5628216583868159927
MonoBehaviour:
  m_ObjectHideFlags: 0
  m_CorrespondingSourceObject: {fileID: 0}
  m_PrefabInstance: {fileID: 0}
  m_PrefabAsset: {fileID: 0}
  m_GameObject: {fileID: 1891080909852819448}
  m_Enabled: 1
  m_EditorHideFlags: 0
  m_Script: {fileID: 11500000, guid: 0c2ce51367856bd49b72678cc4263225, type: 3}
  m_Name: 
  m_EditorClassIdentifier: 
  Active: 1
  Label: Sound
  Chance: 100
  Timing:
    TimescaleMode: 0
    InitialDelay: 0
    CooldownDuration: 0
    NumberOfRepeats: 0
    RepeatForever: 0
    DelayBetweenRepeats: 1
    Sequence: {fileID: 0}
    TrackID: 0
    Quantized: 0
    TargetBPM: 120
  DebugActive: 0
  Sfx: {fileID: 8300000, guid: c362bfad4e2260d49bb067e318f77369, type: 3}
  RandomSfx: []
  TestButton: 0
  TestStopButton: 0
  PlayMethod: 0
  PoolSize: 10
  MinVolume: 1
  MaxVolume: 1
  MinPitch: 1
  MaxPitch: 1
  SfxAudioMixerGroup: {fileID: 0}
--- !u!114 &4643787643886568759
MonoBehaviour:
  m_ObjectHideFlags: 0
  m_CorrespondingSourceObject: {fileID: 0}
  m_PrefabInstance: {fileID: 0}
  m_PrefabAsset: {fileID: 0}
  m_GameObject: {fileID: 1891080909852819448}
  m_Enabled: 1
  m_EditorHideFlags: 0
  m_Script: {fileID: 11500000, guid: d8fe7e41857f44348b52714b3238715c, type: 3}
  m_Name: 
  m_EditorClassIdentifier: 
  Active: 1
  Label: Camera Shake
  Chance: 100
  Timing:
    TimescaleMode: 0
    InitialDelay: 0
    CooldownDuration: 0
    NumberOfRepeats: 0
    RepeatForever: 0
    DelayBetweenRepeats: 1
    Sequence: {fileID: 0}
    TrackID: 0
    Quantized: 0
    TargetBPM: 120
  DebugActive: 0
  RepeatUntilStopped: 0
  Channel: 0
  CameraShakeProperties:
    Duration: 0.1
    Amplitude: 0.2
    Frequency: 40
--- !u!114 &5115422185614218882
MonoBehaviour:
  m_ObjectHideFlags: 0
  m_CorrespondingSourceObject: {fileID: 0}
  m_PrefabInstance: {fileID: 0}
  m_PrefabAsset: {fileID: 0}
  m_GameObject: {fileID: 1891080909852819448}
  m_Enabled: 1
  m_EditorHideFlags: 0
  m_Script: {fileID: 11500000, guid: 0c2ce51367856bd49b72678cc4263225, type: 3}
  m_Name: 
  m_EditorClassIdentifier: 
  Active: 1
  Label: Sound
  Chance: 100
  Timing:
    TimescaleMode: 0
    InitialDelay: 0
    CooldownDuration: 0
    NumberOfRepeats: 0
    RepeatForever: 0
    DelayBetweenRepeats: 1
    Sequence: {fileID: 0}
    TrackID: 0
    Quantized: 0
    TargetBPM: 120
  DebugActive: 0
  Sfx: {fileID: 8300000, guid: b34e4aabd474c45c2945fc9c6eec8381, type: 3}
  RandomSfx: []
  TestButton: 0
  TestStopButton: 0
  PlayMethod: 0
  PoolSize: 10
  MinVolume: 1
  MaxVolume: 1
  MinPitch: 1
  MaxPitch: 1
  SfxAudioMixerGroup: {fileID: 0}
--- !u!1 &6211418183160165590
GameObject:
  m_ObjectHideFlags: 0
  m_CorrespondingSourceObject: {fileID: 0}
  m_PrefabInstance: {fileID: 0}
  m_PrefabAsset: {fileID: 0}
  serializedVersion: 6
  m_Component:
  - component: {fileID: 4933920765886181543}
  - component: {fileID: 7309485491381257583}
  - component: {fileID: 4479474856653214028}
  - component: {fileID: 8833998026040116711}
  - component: {fileID: 2057175435906166084}
  - component: {fileID: 7362514042450146844}
  m_Layer: 10
  m_Name: WeaponUsedMMFeedback1
  m_TagString: Untagged
  m_Icon: {fileID: 0}
  m_NavMeshLayer: 0
  m_StaticEditorFlags: 0
  m_IsActive: 1
--- !u!4 &4933920765886181543
Transform:
  m_ObjectHideFlags: 0
  m_CorrespondingSourceObject: {fileID: 0}
  m_PrefabInstance: {fileID: 0}
  m_PrefabAsset: {fileID: 0}
  m_GameObject: {fileID: 6211418183160165590}
  m_LocalRotation: {x: -0, y: -0, z: -0, w: 1}
  m_LocalPosition: {x: 0, y: 0, z: 0}
  m_LocalScale: {x: 1, y: 1, z: 1}
  m_Children: []
  m_Father: {fileID: 4565189611861034}
  m_RootOrder: 1
  m_LocalEulerAnglesHint: {x: 0, y: 0, z: 0}
--- !u!114 &7309485491381257583
MonoBehaviour:
  m_ObjectHideFlags: 0
  m_CorrespondingSourceObject: {fileID: 0}
  m_PrefabInstance: {fileID: 0}
  m_PrefabAsset: {fileID: 0}
  m_GameObject: {fileID: 6211418183160165590}
  m_Enabled: 1
  m_EditorHideFlags: 0
  m_Script: {fileID: 11500000, guid: 841b72de2996c5c40bfb394f3d0e0a98, type: 3}
  m_Name: 
  m_EditorClassIdentifier: 
  Feedbacks:
  - {fileID: 4479474856653214028}
  - {fileID: 8833998026040116711}
  - {fileID: 2057175435906166084}
  - {fileID: 7362514042450146844}
  InitializationMode: 2
  SafeMode: 3
  AutoPlayOnStart: 0
  DebugActive: 0
--- !u!114 &4479474856653214028
MonoBehaviour:
  m_ObjectHideFlags: 0
  m_CorrespondingSourceObject: {fileID: 0}
  m_PrefabInstance: {fileID: 0}
  m_PrefabAsset: {fileID: 0}
  m_GameObject: {fileID: 6211418183160165590}
  m_Enabled: 1
  m_EditorHideFlags: 0
  m_Script: {fileID: 11500000, guid: 6b50cd65cc53b9e46bdaae0a40ba6704, type: 3}
  m_Name: 
  m_EditorClassIdentifier: 
  Active: 1
  Label: Bloom
  Chance: 100
  Timing:
    TimescaleMode: 0
    InitialDelay: 0
    CooldownDuration: 0
    NumberOfRepeats: 0
    RepeatForever: 0
    DelayBetweenRepeats: 1
    Sequence: {fileID: 0}
    TrackID: 0
    Quantized: 0
    TargetBPM: 120
  DebugActive: 0
  Channel: 0
  ShakeDuration: 0.2
  ResetShakerValuesAfterShake: 1
  ResetTargetValuesAfterShake: 1
  RelativeValues: 1
  ShakeIntensity:
    serializedVersion: 2
    m_Curve:
    - serializedVersion: 3
      time: 0
      value: 0
      inSlope: 0
      outSlope: 0
      tangentMode: 0
      weightedMode: 0
      inWeight: 0
      outWeight: 0
    - serializedVersion: 3
      time: 0.5
      value: 1
      inSlope: 0
      outSlope: 0
      tangentMode: 0
      weightedMode: 0
      inWeight: 0
      outWeight: 0
    - serializedVersion: 3
      time: 1
      value: 0
      inSlope: 0
      outSlope: 0
      tangentMode: 0
      weightedMode: 0
      inWeight: 0
      outWeight: 0
    m_PreInfinity: 2
    m_PostInfinity: 2
    m_RotationOrder: 4
  RemapIntensityZero: 0
  RemapIntensityOne: 1
  ShakeThreshold:
    serializedVersion: 2
    m_Curve:
    - serializedVersion: 3
      time: 0
      value: 0
      inSlope: 0
      outSlope: 0
      tangentMode: 0
      weightedMode: 0
      inWeight: 0
      outWeight: 0
    - serializedVersion: 3
      time: 0.5
      value: 1
      inSlope: 0
      outSlope: 0
      tangentMode: 0
      weightedMode: 0
      inWeight: 0
      outWeight: 0
    - serializedVersion: 3
      time: 1
      value: 0
      inSlope: 0
      outSlope: 0
      tangentMode: 0
      weightedMode: 0
      inWeight: 0
      outWeight: 0
    m_PreInfinity: 2
    m_PostInfinity: 2
    m_RotationOrder: 4
  RemapThresholdZero: 0
  RemapThresholdOne: 0
--- !u!114 &8833998026040116711
MonoBehaviour:
  m_ObjectHideFlags: 0
  m_CorrespondingSourceObject: {fileID: 0}
  m_PrefabInstance: {fileID: 0}
  m_PrefabAsset: {fileID: 0}
  m_GameObject: {fileID: 6211418183160165590}
  m_Enabled: 1
  m_EditorHideFlags: 0
  m_Script: {fileID: 11500000, guid: 75a83e73a8ad76c4a9a82695f98ff05e, type: 3}
  m_Name: 
  m_EditorClassIdentifier: 
  Active: 1
  Label: Chromatic Aberration
  Chance: 100
  Timing:
    TimescaleMode: 0
    InitialDelay: 0
    CooldownDuration: 0
    NumberOfRepeats: 0
    RepeatForever: 0
    DelayBetweenRepeats: 1
    Sequence: {fileID: 0}
    TrackID: 0
    Quantized: 0
    TargetBPM: 120
  DebugActive: 0
  Channel: 0
  Duration: 0.2
  ResetShakerValuesAfterShake: 1
  ResetTargetValuesAfterShake: 1
  RemapIntensityZero: 0
  RemapIntensityOne: 1
  Intensity:
    serializedVersion: 2
    m_Curve:
    - serializedVersion: 3
      time: 0
      value: 0
      inSlope: 0
      outSlope: 0
      tangentMode: 0
      weightedMode: 0
      inWeight: 0
      outWeight: 0
    - serializedVersion: 3
      time: 0.5
      value: 1
      inSlope: 0
      outSlope: 0
      tangentMode: 0
      weightedMode: 0
      inWeight: 0
      outWeight: 0
    - serializedVersion: 3
      time: 1
      value: 0
      inSlope: 0
      outSlope: 0
      tangentMode: 0
      weightedMode: 0
      inWeight: 0
      outWeight: 0
    m_PreInfinity: 2
    m_PostInfinity: 2
    m_RotationOrder: 4
  Amplitude: 2
  RelativeIntensity: 0
--- !u!114 &2057175435906166084
MonoBehaviour:
  m_ObjectHideFlags: 0
  m_CorrespondingSourceObject: {fileID: 0}
  m_PrefabInstance: {fileID: 0}
  m_PrefabAsset: {fileID: 0}
  m_GameObject: {fileID: 6211418183160165590}
  m_Enabled: 1
  m_EditorHideFlags: 0
  m_Script: {fileID: 11500000, guid: 4cf8e1825623fb34b9fc92dbef54ec56, type: 3}
  m_Name: 
  m_EditorClassIdentifier: 
  Active: 1
  Label: Flash
  Chance: 100
  Timing:
    TimescaleMode: 0
    InitialDelay: 0
    CooldownDuration: 0
    NumberOfRepeats: 0
    RepeatForever: 0
    DelayBetweenRepeats: 1
    Sequence: {fileID: 0}
    TrackID: 0
    Quantized: 0
    TargetBPM: 120
  DebugActive: 0
  Channel: 0
  FlashColor: {r: 0.8431373, g: 0.7254902, b: 0.9568628, a: 1}
  FlashDuration: 0.2
  FlashAlpha: 0.3
  FlashID: 0
--- !u!114 &7362514042450146844
MonoBehaviour:
  m_ObjectHideFlags: 0
  m_CorrespondingSourceObject: {fileID: 0}
  m_PrefabInstance: {fileID: 0}
  m_PrefabAsset: {fileID: 0}
  m_GameObject: {fileID: 6211418183160165590}
  m_Enabled: 1
  m_EditorHideFlags: 0
  m_Script: {fileID: 11500000, guid: 0c2ce51367856bd49b72678cc4263225, type: 3}
  m_Name: 
  m_EditorClassIdentifier: 
  Active: 1
  Label: Sound
  Chance: 100
  Timing:
    TimescaleMode: 0
    InitialDelay: 0
    CooldownDuration: 0
    NumberOfRepeats: 0
    RepeatForever: 0
    DelayBetweenRepeats: 1
    Sequence: {fileID: 0}
    TrackID: 0
    Quantized: 0
    TargetBPM: 120
  DebugActive: 0
  Sfx: {fileID: 8300000, guid: c4fe2906b4101d946a6f4e3bcb52bff5, type: 3}
  RandomSfx: []
  TestButton: 0
  TestStopButton: 0
  PlayMethod: 0
  PoolSize: 10
  MinVolume: 1
  MaxVolume: 1
  MinPitch: 1
  MaxPitch: 1
  SfxAudioMixerGroup: {fileID: 0}
