%YAML 1.1
%TAG !u! tag:unity3d.com,2011:
--- !u!74 &7400000
AnimationClip:
  m_ObjectHideFlags: 0
  m_CorrespondingSourceObject: {fileID: 0}
  m_PrefabInstance: {fileID: 0}
  m_PrefabAsset: {fileID: 0}
  m_Name: shoot
  serializedVersion: 6
  m_Legacy: 0
  m_Compressed: 0
  m_UseHighQualityCurve: 1
  m_RotationCurves: []
  m_CompressedRotationCurves: []
  m_EulerCurves: []
  m_PositionCurves: []
  m_ScaleCurves: []
  m_FloatCurves: []
  m_PPtrCurves:
  - curve:
    - time: 0
      value: {fileID: 4889148521225415988, guid: 60a860e9ee9a9e0489439004cb1bcbb8,
        type: 3}
    - time: 0.06666667
      value: {fileID: 4431742976319963358, guid: 60a860e9ee9a9e0489439004cb1bcbb8,
        type: 3}
    - time: 0.13333334
      value: {fileID: -5552985701375297982, guid: 60a860e9ee9a9e0489439004cb1bcbb8,
        type: 3}
    - time: 0.2
      value: {fileID: 7722991853456532802, guid: 60a860e9ee9a9e0489439004cb1bcbb8,
        type: 3}
    - time: 0.26666668
      value: {fileID: -6700661561348878570, guid: 60a860e9ee9a9e0489439004cb1bcbb8,
        type: 3}
    - time: 0.33333334
      value: {fileID: 4032582304227936218, guid: 60a860e9ee9a9e0489439004cb1bcbb8,
        type: 3}
    - time: 0.4
      value: {fileID: -7165668563806796711, guid: 60a860e9ee9a9e0489439004cb1bcbb8,
        type: 3}
    - time: 0.46666667
      value: {fileID: -1038135375298536993, guid: 60a860e9ee9a9e0489439004cb1bcbb8,
        type: 3}
    attribute: m_Sprite
    path: 
    classID: 212
    script: {fileID: 0}
  m_SampleRate: 60
  m_WrapMode: 0
  m_Bounds:
    m_Center: {x: 0, y: 0, z: 0}
    m_Extent: {x: 0, y: 0, z: 0}
  m_ClipBindingConstant:
    genericBindings:
    - serializedVersion: 2
      path: 0
      attribute: 0
      script: {fileID: 0}
      typeID: 212
      customType: 23
      isPPtrCurve: 1
    pptrCurveMapping:
    - {fileID: 4889148521225415988, guid: 60a860e9ee9a9e0489439004cb1bcbb8, type: 3}
    - {fileID: 4431742976319963358, guid: 60a860e9ee9a9e0489439004cb1bcbb8, type: 3}
    - {fileID: -5552985701375297982, guid: 60a860e9ee9a9e0489439004cb1bcbb8, type: 3}
    - {fileID: 7722991853456532802, guid: 60a860e9ee9a9e0489439004cb1bcbb8, type: 3}
    - {fileID: -6700661561348878570, guid: 60a860e9ee9a9e0489439004cb1bcbb8, type: 3}
    - {fileID: 4032582304227936218, guid: 60a860e9ee9a9e0489439004cb1bcbb8, type: 3}
    - {fileID: -7165668563806796711, guid: 60a860e9ee9a9e0489439004cb1bcbb8, type: 3}
    - {fileID: -1038135375298536993, guid: 60a860e9ee9a9e0489439004cb1bcbb8, type: 3}
  m_AnimationClipSettings:
    serializedVersion: 2
    m_AdditiveReferencePoseClip: {fileID: 0}
    m_AdditiveReferencePoseTime: 0
    m_StartTime: 0
    m_StopTime: 0.48333332
    m_OrientationOffsetY: 0
    m_Level: 0
    m_CycleOffset: 0
    m_HasAdditiveReferencePose: 0
    m_LoopTime: 0
    m_LoopBlend: 0
    m_LoopBlendOrientation: 0
    m_LoopBlendPositionY: 0
    m_LoopBlendPositionXZ: 0
    m_KeepOriginalOrientation: 0
    m_KeepOriginalPositionY: 1
    m_KeepOriginalPositionXZ: 0
    m_HeightFromFeet: 0
    m_Mirror: 0
  m_EditorCurves: []
  m_EulerEditorCurves: []
  m_HasGenericRootTransform: 0
  m_HasMotionFloatCurves: 0
  m_Events:
  - time: 0.26666668
    functionName: ShootBullet
    data: 
    objectReferenceParameter: {fileID: 0}
    floatParameter: 0
    intParameter: 0
    messageOptions: 0
  - time: 0.26666668
    functionName: 
    data: 
    objectReferenceParameter: {fileID: 0}
    floatParameter: 0
    intParameter: 0
    messageOptions: 0
