%YAML 1.1
%TAG !u! tag:unity3d.com,2011:
--- !u!114 &6111384905309677150
MonoBehaviour:
  m_ObjectHideFlags: 0
  m_CorrespondingSourceObject: {fileID: 0}
  m_PrefabInstance: {fileID: 0}
  m_PrefabAsset: {fileID: 0}
  m_GameObject: {fileID: 2368758417580564264}
  m_Enabled: 1
  m_EditorHideFlags: 0
  m_Script: {fileID: 11500000, guid: 6f36bee827364184baacb87e64cd9776, type: 3}
  m_Name: 
  m_EditorClassIdentifier: 
  isPicked: 0
  index: 0
--- !u!1 &5835999145231380366
GameObject:
  m_ObjectHideFlags: 0
  m_CorrespondingSourceObject: {fileID: 0}
  m_PrefabInstance: {fileID: 0}
  m_PrefabAsset: {fileID: 0}
  serializedVersion: 6
  m_Component:
  - component: {fileID: 5835999145231380367}
  m_Layer: 0
  m_Name: PowerShipHandler
  m_TagString: Untagged
  m_Icon: {fileID: 0}
  m_NavMeshLayer: 0
  m_StaticEditorFlags: 0
  m_IsActive: 1
--- !u!4 &5835999145231380367
Transform:
  m_ObjectHideFlags: 0
  m_CorrespondingSourceObject: {fileID: 0}
  m_PrefabInstance: {fileID: 0}
  m_PrefabAsset: {fileID: 0}
  m_GameObject: {fileID: 5835999145231380366}
  m_LocalRotation: {x: 0, y: 0, z: 0, w: 1}
  m_LocalPosition: {x: 131.24, y: 35.11689, z: 0}
  m_LocalScale: {x: 1, y: 1, z: 1}
  m_Children:
  - {fileID: 2368758417580564310}
  m_Father: {fileID: 0}
  m_RootOrder: 0
  m_LocalEulerAnglesHint: {x: 0, y: 0, z: 0}
--- !u!1001 &5835999145269854001
PrefabInstance:
  m_ObjectHideFlags: 0
  serializedVersion: 2
  m_Modification:
    m_TransformParent: {fileID: 5835999145231380367}
    m_Modifications:
    - target: {fileID: 8080064070789750809, guid: 3356f8b3c02336b4e83797cd66efe256,
        type: 3}
      propertyPath: m_Name
      value: PowerupShip
      objectReference: {fileID: 0}
    - target: {fileID: 8080064070789750882, guid: 3356f8b3c02336b4e83797cd66efe256,
        type: 3}
      propertyPath: canvas
      value: 
      objectReference: {fileID: 0}
    - target: {fileID: 8080064070789750885, guid: 3356f8b3c02336b4e83797cd66efe256,
        type: 3}
      propertyPath: canvas
      value: 
      objectReference: {fileID: 0}
    - target: {fileID: 8080064070789750887, guid: 3356f8b3c02336b4e83797cd66efe256,
        type: 3}
      propertyPath: m_LocalPosition.x
      value: 0
      objectReference: {fileID: 0}
    - target: {fileID: 8080064070789750887, guid: 3356f8b3c02336b4e83797cd66efe256,
        type: 3}
      propertyPath: m_LocalPosition.y
      value: 0
      objectReference: {fileID: 0}
    - target: {fileID: 8080064070789750887, guid: 3356f8b3c02336b4e83797cd66efe256,
        type: 3}
      propertyPath: m_LocalPosition.z
      value: 0
      objectReference: {fileID: 0}
    - target: {fileID: 8080064070789750887, guid: 3356f8b3c02336b4e83797cd66efe256,
        type: 3}
      propertyPath: m_LocalRotation.x
      value: 0
      objectReference: {fileID: 0}
    - target: {fileID: 8080064070789750887, guid: 3356f8b3c02336b4e83797cd66efe256,
        type: 3}
      propertyPath: m_LocalRotation.y
      value: 0
      objectReference: {fileID: 0}
    - target: {fileID: 8080064070789750887, guid: 3356f8b3c02336b4e83797cd66efe256,
        type: 3}
      propertyPath: m_LocalRotation.z
      value: 0
      objectReference: {fileID: 0}
    - target: {fileID: 8080064070789750887, guid: 3356f8b3c02336b4e83797cd66efe256,
        type: 3}
      propertyPath: m_LocalRotation.w
      value: 1
      objectReference: {fileID: 0}
    - target: {fileID: 8080064070789750887, guid: 3356f8b3c02336b4e83797cd66efe256,
        type: 3}
      propertyPath: m_RootOrder
      value: 0
      objectReference: {fileID: 0}
    - target: {fileID: 8080064070789750887, guid: 3356f8b3c02336b4e83797cd66efe256,
        type: 3}
      propertyPath: m_LocalEulerAnglesHint.x
      value: 0
      objectReference: {fileID: 0}
    - target: {fileID: 8080064070789750887, guid: 3356f8b3c02336b4e83797cd66efe256,
        type: 3}
      propertyPath: m_LocalEulerAnglesHint.y
      value: 0
      objectReference: {fileID: 0}
    - target: {fileID: 8080064070789750887, guid: 3356f8b3c02336b4e83797cd66efe256,
        type: 3}
      propertyPath: m_LocalEulerAnglesHint.z
      value: 0
      objectReference: {fileID: 0}
    m_RemovedComponents: []
  m_SourcePrefab: {fileID: 100100000, guid: 3356f8b3c02336b4e83797cd66efe256, type: 3}
--- !u!1 &2368758417580564264 stripped
GameObject:
  m_CorrespondingSourceObject: {fileID: 8080064070789750809, guid: 3356f8b3c02336b4e83797cd66efe256,
    type: 3}
  m_PrefabInstance: {fileID: 5835999145269854001}
  m_PrefabAsset: {fileID: 0}
--- !u!4 &2368758417580564310 stripped
Transform:
  m_CorrespondingSourceObject: {fileID: 8080064070789750887, guid: 3356f8b3c02336b4e83797cd66efe256,
    type: 3}
  m_PrefabInstance: {fileID: 5835999145269854001}
  m_PrefabAsset: {fileID: 0}
